Gather to Tidy Data
…
Assembling one large data object from lots of little ones is a common data preparation task. When the pieces are as similar as they are here, it’s nice to assemble them into one object right away. In other scenarios, you may need to do some remedial work on the pieces before they can be fitted together nicely.

A good guiding principle is to glue the pieces together as early as possible, because it’s easier and more efficient to tidy a single object than 20 or 1000.

Tidy

We are still violating one of the fundamental principles of tidy data. “Bake count” is a fundamental variable in our dataset and it’s currently spread out over two variables, cake and pie_tart. Conceptually, we need to gather up the bake counts into a single variable and create a new variable, n_bakes, to track whether each count refers to cakes or pies/tarts. We use the gather() function from the tidyr package to do this.

bakes_tidy <- bakes_untidy %>% 
  gather(key = 'type_bake', value = 'n_bakes', cake, pie_tart)
bakes_tidy
#> # A tibble: 32 x 4
#>    series challenge   type_bake n_bakes
#>     <int> <chr>       <chr>       <int>
#>  1      1 showstopper cake            5
#>  2      1 signature   cake           12
#>  3      2 showstopper cake            8
#>  4      2 signature   cake           21
#>  5      3 showstopper cake           12
#>  6      3 signature   cake           24
#>  7      4 showstopper cake           27
#>  8      4 signature   cake           11
#>  9      5 showstopper cake           20
#> 10      5 signature   cake            4
#> # ... with 22 more rows
…
Choose one of three tidying adventures:

Bachelorette

Follow along with these code prompts:

Use the following code to read in data used from several stories from 538 (Note: you’ll get a bunch of parsing errors and that is OK to ignore):

# import bachelor data
bach <- read_csv("https://raw.githubusercontent.com/fivethirtyeight/data/master/bachelorette/bachelorette.csv",
                         col_types = cols(SEASON = col_integer()))

Create a dataset that looks like this:

#> # A tibble: 1,232 x 5
#>    SHOW         SEASON CONTESTANT     week eliminated
#>    <chr>         <int> <chr>         <dbl> <chr>     
#>  1 Bachelorette     13 13_BRYAN_A        1 R1        
#>  2 Bachelorette     13 13_BLAKE_K        1 E         
#>  3 Bachelorette     13 13_GRANT_H        1 E         
#>  4 Bachelorette     13 13_JEDIDIAH_B     1 E         
#>  5 Bachelorette     13 13_KYLE_S         1 E         
#>  6 Bachelorette     13 13_MICHAEL_B      1 E         
#>  7 Bachelorette     13 13_MILTON_L       1 E         
#>  8 Bachelorette     13 13_MOHIT_S        1 E         
#>  9 Bachelorette     13 13_ROB_H          1 E         
#> 10 Bachelorette     12 12_JORDAN_R       1 R1        
#> # ... with 1,222 more rows
…
