Spread to Tidy Data
…
“ED” connotes a date elimination.

“EU” connotes an unscheduled elimination, one that takes place at a time outside of a date or rose ceremony.

“R” means the contestant received a rose.

“R1” means the contestant got a first impression rose.

“W” means the contestant won.

Count

Using that tidy data, count the values in your new eliminated column by contestant name and show.

#> # A tibble: 1,128 x 4
#>    CONTESTANT     SHOW         eliminated     n
#>    <chr>          <chr>        <chr>      <int>
#>  1 01_ALEXA_X     Bachelor     E              1
#>  2 01_AMANDA_M    Bachelor     W              1
#>  3 01_AMBER_X     Bachelor     E              1
#>  4 01_AMY_X       Bachelor     E              1
#>  5 01_ANGELA_X    Bachelor     E              1
#>  6 01_ANGELIQUE_X Bachelor     E              1
#>  7 01_BILLY_X     Bachelorette E              1
#>  8 01_BOB_G       Bachelorette E              1
#>  9 01_BRIAN_C     Bachelorette E              1
#> 10 01_BRIAN_H     Bachelorette EQ             1
#> # ... with 1,118 more rows
…
